>> def string_shuffle(s)
>>   s.split('').shuffle.join
>> end
=> :string_shuffle
>> string_shuffle("foobar")
=> "roofba"

>> def string_shuffle(s)
>>   s.split('').shuffle.join
>> end
=> :string_shuffle
>> string_shuffle("foobar")
=> "roofba"
>> class String
>>   def shuffle
>>   self.split('').shuffle.join
>> end
>> end
=> :shuffle
>> "foobar".shuffle
=> "fooabr"

#person1~3はシンボルを使用していない
>> person1 = {}
=> {}
>> person2 = {}
=> {}
>> person3 = {}
=> {}
>> person1["first_name"] = "Naoyuki"
=> "Naoyuki"
>> person1["last_name"] = "Shimizu"
=> "Shimizu"
>> person2["first_name"] = "Ryutaro"                                                                                                               
=> "Ryutaro"
>> person1["last_name"] = "Sakanashi"
=> "Sakanashi"
>> person3["first_name"] = "Seiichi"                                                                                                               
=> "Seiichi"
>> person3["last_name"] = "Kondoh"                                                                                                               
=> "Kondoh"
>> params = {}
=> {}
>> params[:fathre] = person1
=> {"first_name"=>"Naoyuki", "last_name"=>"Sakanashi"}
>> params[:mother] = person2
=> {"first_name"=>"Ryutaro"}
>> params[:child] = person3
=> {"first_name"=>"Seiichi", "last_name"=>"Kondoh"}
>> params[:child][last_namee]
NameError: undefined local variable or method `last_namee' for main:Object
        from (irb):24
        from /usr/local/rvm/gems/ruby-2.3.0/gems/railties-4.2.2/lib/rails/commands/console.rb:110:in `start'
        from /usr/local/rvm/gems/ruby-2.3.0/gems/railties-4.2.2/lib/rails/commands/console.rb:9:in `start'
        from /usr/local/rvm/gems/ruby-2.3.0/gems/railties-4.2.2/lib/rails/commands/commands_tasks.rb:68:in `console'
        from /usr/local/rvm/gems/ruby-2.3.0/gems/railties-4.2.2/lib/rails/commands/commands_tasks.rb:39:in `run_command!'
        from /usr/local/rvm/gems/ruby-2.3.0/gems/railties-4.2.2/lib/rails/commands.rb:17:in `<top (required)>'
        from /usr/local/rvm/gems/ruby-2.3.0/gems/activesupport-4.2.2/lib/active_support/dependencies.rb:274:in `require'
        from /usr/local/rvm/gems/ruby-2.3.0/gems/activesupport-4.2.2/lib/active_support/dependencies.rb:274:in `block in require'
        from /usr/local/rvm/gems/ruby-2.3.0/gems/activesupport-4.2.2/lib/active_support/dependencies.rb:240:in `load_dependency'
        from /usr/local/rvm/gems/ruby-2.3.0/gems/activesupport-4.2.2/lib/active_support/dependencies.rb:274:in `require'
        from /home/ubuntu/workspace/sample_app/sample_app/bin/rails:9:in `<top (required)>'
        from /usr/local/rvm/gems/ruby-2.3.0/gems/activesupport-4.2.2/lib/active_support/dependencies.rb:268:in `load'
        from /usr/local/rvm/gems/ruby-2.3.0/gems/activesupport-4.2.2/lib/active_support/dependencies.rb:268:in `block in load'
        from /usr/local/rvm/gems/ruby-2.3.0/gems/activesupport-4.2.2/lib/active_support/dependencies.rb:240:in `load_dependency'
        from /usr/local/rvm/gems/ruby-2.3.0/gems/activesupport-4.2.2/lib/active_support/dependencies.rb:268:in `load'
        from /usr/local/rvm/gems/ruby-2.3.0/gems/spring-1.1.3/lib/spring/commands/rails.rb:6:in `call'
        from /usr/local/rvm/gems/ruby-2.3.0/gems/spring-1.1.3/lib/spring/command_wrapper.rb:38:in `call'
        from /usr/local/rvm/gems/ruby-2.3.0/gems/spring-1.1.3/lib/spring/application.rb:180:in `block in serve'
        from /usr/local/rvm/gems/ruby-2.3.0/gems/spring-1.1.3/lib/spring/application.rb:153:in `fork'
        from /usr/local/rvm/gems/ruby-2.3.0/gems/spring-1.1.3/lib/spring/application.rb:153:in `serve'
        from /usr/local/rvm/gems/ruby-2.3.0/gems/spring-1.1.3/lib/spring/application.rb:128:in `block in run'
        from /usr/local/rvm/gems/ruby-2.3.0/gems/spring-1.1.3/lib/spring/application.rb:122:in `loop'
        from /usr/local/rvm/gems/ruby-2.3.0/gems/spring-1.1.3/lib/spring/application.rb:122:in `run'
        from /usr/local/rvm/gems/ruby-2.3.0/gems/spring-1.1.3/lib/spring/application/boot.rb:18:in `<top (required)>'
        from /usr/local/rvm/rubies/ruby-2.3.0/lib/ruby/2.3.0/rubygems/core_ext/kernel_require.rb:55:in `require'
        from /usr/local/rvm/rubies/ruby-2.3.0/lib/ruby/2.3.0/rubygems/core_ext/kernel_require.rb:55:in `require'
        from -e:1:in `<main>'>> params[:child][last_name]
NameError: undefined local variable or method `last_name' for main:Object
        from (irb):25
        from /usr/local/rvm/gems/ruby-2.3.0/gems/railties-4.2.2/lib/rails/commands/console.rb:110:in `start'
        from /usr/local/rvm/gems/ruby-2.3.0/gems/railties-4.2.2/lib/rails/commands/console.rb:9:in `start'
        from /usr/local/rvm/gems/ruby-2.3.0/gems/railties-4.2.2/lib/rails/commands/commands_tasks.rb:68:in `console'
        from /usr/local/rvm/gems/ruby-2.3.0/gems/railties-4.2.2/lib/rails/commands/commands_tasks.rb:39:in `run_command!'
        from /usr/local/rvm/gems/ruby-2.3.0/gems/railties-4.2.2/lib/rails/commands.rb:17:in `<top (required)>'
        from /usr/local/rvm/gems/ruby-2.3.0/gems/activesupport-4.2.2/lib/active_support/dependencies.rb:274:in `require'
        from /usr/local/rvm/gems/ruby-2.3.0/gems/activesupport-4.2.2/lib/active_support/dependencies.rb:274:in `block in require'
        from /usr/local/rvm/gems/ruby-2.3.0/gems/activesupport-4.2.2/lib/active_support/dependencies.rb:240:in `load_dependency'
        from /usr/local/rvm/gems/ruby-2.3.0/gems/activesupport-4.2.2/lib/active_support/dependencies.rb:274:in `require'
        from /home/ubuntu/workspace/sample_app/sample_app/bin/rails:9:in `<top (required)>'
        from /usr/local/rvm/gems/ruby-2.3.0/gems/activesupport-4.2.2/lib/active_support/dependencies.rb:268:in `load'
        from /usr/local/rvm/gems/ruby-2.3.0/gems/activesupport-4.2.2/lib/active_support/dependencies.rb:268:in `block in load'
        from /usr/local/rvm/gems/ruby-2.3.0/gems/activesupport-4.2.2/lib/active_support/dependencies.rb:240:in `load_dependency'
        from /usr/local/rvm/gems/ruby-2.3.0/gems/activesupport-4.2.2/lib/active_support/dependencies.rb:268:in `load'
        from /usr/local/rvm/gems/ruby-2.3.0/gems/spring-1.1.3/lib/spring/commands/rails.rb:6:in `call'
        from /usr/local/rvm/gems/ruby-2.3.0/gems/spring-1.1.3/lib/spring/command_wrapper.rb:38:in `call'
        from /usr/local/rvm/gems/ruby-2.3.0/gems/spring-1.1.3/lib/spring/application.rb:180:in `block in serve'
        from /usr/local/rvm/gems/ruby-2.3.0/gems/spring-1.1.3/lib/spring/application.rb:153:in `fork'
        from /usr/local/rvm/gems/ruby-2.3.0/gems/spring-1.1.3/lib/spring/application.rb:153:in `serve'
        from /usr/local/rvm/gems/ruby-2.3.0/gems/spring-1.1.3/lib/spring/application.rb:128:in `block in run'
        from /usr/local/rvm/gems/ruby-2.3.0/gems/spring-1.1.3/lib/spring/application.rb:122:in `loop'
        from /usr/local/rvm/gems/ruby-2.3.0/gems/spring-1.1.3/lib/spring/application.rb:122:in `run'
        from /usr/local/rvm/gems/ruby-2.3.0/gems/spring-1.1.3/lib/spring/application/boot.rb:18:in `<top (required)>'
        from /usr/local/rvm/rubies/ruby-2.3.0/lib/ruby/2.3.0/rubygems/core_ext/kernel_require.rb:55:in `require'
        from /usr/local/rvm/rubies/ruby-2.3.0/lib/ruby/2.3.0/rubygems/core_ext/kernel_require.rb:55:in `require'
        from -e:1:in `<main>'>> params[:child]
=> {"first_name"=>"Seiichi", "last_name"=>"Kondoh"}
>> params[:child]["last_name"]
=> "Kondoh"
>> person1
=> {"first_name"=>"Naoyuki", "last_name"=>"Sakanashi"}
>> person1["first_name] = person1[:first]

^C
>> person1
=> {"first_name"=>"Naoyuki", "last_name"=>"Sakanashi"}

>> { "a" => 100, "b" => 200 }.merge({ "b" => 300 })
=> {"a"=>100, "b"=>300}